选择题：20-30%                                                                                                 时间：周二晚上7-9点
判断题：10-20%                                                                                                 地址：E303
                                                                                                               座位号：11号
一共40%

问答题40%
综合应用题20%


