^C:\USERS\TRACEUR\DESKTOP\OMP\OMP\RELEASE\MAIN.OBJ
C:\PROGRAM FILES (X86)\WINDOWS KITS\10\LIB\10.0.16299.0\UM\X86\KERNEL32.LIB
C:\PROGRAM FILES (X86)\WINDOWS KITS\10\LIB\10.0.16299.0\UM\X86\USER32.LIB
C:\PROGRAM FILES (X86)\WINDOWS KITS\10\LIB\10.0.16299.0\UM\X86\GDI32.LIB
C:\PROGRAM FILES (X86)\WINDOWS KITS\10\LIB\10.0.16299.0\UM\X86\WINSPOOL.LIB
C:\PROGRAM FILES (X86)\WINDOWS KITS\10\LIB\10.0.16299.0\UM\X86\COMDLG32.LIB
C:\PROGRAM FILES (X86)\WINDOWS KITS\10\LIB\10.0.16299.0\UM\X86\ADVAPI32.LIB
C:\PROGRAM FILES (X86)\WINDOWS KITS\10\LIB\10.0.16299.0\UM\X86\SHELL32.LIB
C:\PROGRAM FILES (X86)\WINDOWS KITS\10\LIB\10.0.16299.0\UM\X86\OLE32.LIB
C:\PROGRAM FILES (X86)\WINDOWS KITS\10\LIB\10.0.16299.0\UM\X86\OLEAUT32.LIB
C:\PROGRAM FILES (X86)\WINDOWS KITS\10\LIB\10.0.16299.0\UM\X86\UUID.LIB
C:\PROGRAM FILES (X86)\WINDOWS KITS\10\LIB\10.0.16299.0\UM\X86\ODBC32.LIB
C:\PROGRAM FILES (X86)\WINDOWS KITS\10\LIB\10.0.16299.0\UM\X86\ODBCCP32.LIB
C:\USERS\TRACEUR\DESKTOP\OMP\OMP\RELEASE\MAIN.OBJ
C:\WINDOWS\GLOBALIZATION\SORTING\SORTDEFAULT.NLS
F:\VS2017COMMUNITY\VC\TOOLS\MSVC\14.13.26128\BIN\HOSTX86\X86\C2.DLL
F:\VS2017COMMUNITY\VC\TOOLS\MSVC\14.13.26128\LIB\X86\MSVCRT.LIB
F:\VS2017COMMUNITY\VC\TOOLS\MSVC\14.13.26128\LIB\X86\OLDNAMES.LIB
F:\VS2017COMMUNITY\VC\TOOLS\MSVC\14.13.26128\LIB\X86\VCOMP.LIB
F:\VS2017COMMUNITY\VC\TOOLS\MSVC\14.13.26128\LIB\X86\VCRUNTIME.LIB
C:\PROGRAM FILES (X86)\WINDOWS KITS\10\LIB\10.0.16299.0\UCRT\X86\UCRT.LIB
F:\VS2017COMMUNITY\VC\TOOLS\MSVC\14.13.26128\BIN\HOSTX86\X86\2052\LINKUI.DLL
C:\PROGRAM FILES (X86)\WINDOWS KITS\10\BIN\10.0.16299.0\X86\RC.EXE
F:\VS2017COMMUNITY\VC\TOOLS\MSVC\14.13.26128\BIN\HOSTX86\X86\CVTRES.EXE
C:\WINDOWS\SYSTEM32\TZRES.DLL
F:\VS2017COMMUNITY\VC\TOOLS\MSVC\14.13.26128\BIN\HOSTX86\X86\VCTIP.EXE
